<svg xmlns="http://www.w3.org/2000/svg" width="135.153" height="27.228" viewBox="0 0 135.153 27.228">
  <g id="gov.co" transform="translate(-8996.893 373.838)">
    <g id="Grupo_7237" data-name="Grupo 7237" transform="translate(8996.893 -371.893)">
      <path id="Trazado_2295" data-name="Trazado 2295" d="M116.552,112.36l-1.72.652-.165.464-.385.251a13.422,13.422,0,0,0-.21-2l.621-.008,1.144-1.4-1.664.714-.15.486-1.633,1.238a12.523,12.523,0,0,1,.067,2.146l.361-.243c.156,6.8-2.955,9.365-2.955,9.365a2.814,2.814,0,0,1-.989-.629c2.838-3.162,2.707-7.732,2.7-7.9l-.3.2a15.24,15.24,0,0,0,.042-2.13l-.523.4c-.012-.467-.039-.856-.071-1.126a1.375,1.375,0,0,0,.91-.219,1.967,1.967,0,0,0,.479-1.069c.047-.259-.008-.346-.165-.448a5.579,5.579,0,0,1-.621-.534s.27-.117.9.181c.683.323,1.2.165,1.784-.7l-.7.1.062-.482a.343.343,0,0,1,.036.019,2.383,2.383,0,0,0,.584.22c.157.031.153.009.252.068s.183.082.236.058c0,0,.39.22.547,0a2.022,2.022,0,0,0,.227.118,1.24,1.24,0,0,0,.369.1.6.6,0,0,1,.236.063c.246.124.4.059.432,0s-.153-.255-.3-.377a.656.656,0,0,0-.271-.145c.048-.032.036-.079-.059-.193a1.715,1.715,0,0,0-.4-.267c0-.091-.351-.311-.561-.471s-.126-.153-.35-.384a21.842,21.842,0,0,0-1.76-1.411,13.015,13.015,0,0,0-3.111-1.818,2.771,2.771,0,0,0-2.411.016.733.733,0,0,0-.29.994,6.778,6.778,0,0,0,.365.785c.1.2.019.2-.028.229s0,.109-.042.1-.076.051-.135.118a.487.487,0,0,1-.229.086.2.2,0,0,1,.037-.165.676.676,0,0,0-.215-.061c.016-.033.079-.056.079-.056a.8.8,0,0,0-.251.007c.027-.043.05-.049.05-.049a.352.352,0,0,0-.349.134,1.2,1.2,0,0,0-.243-.291c-.094-.087-.141-.213-.242-.311a.275.275,0,0,0,.023-.249.54.54,0,0,0-.312-.247.138.138,0,0,0,.071-.136c-.011-.094-.1-.129-.194-.1a.682.682,0,0,0-.277.094.724.724,0,0,1-.138,0,.693.693,0,0,0-.327-.884,2.769,2.769,0,0,0-2.411-.016,13.01,13.01,0,0,0-3.109,1.818,21.556,21.556,0,0,0-1.759,1.411c-.225.231-.139.222-.35.384s-.566.38-.562.471a1.731,1.731,0,0,0-.4.267c-.094.114-.106.161-.06.193a.659.659,0,0,0-.27.145c-.146.122-.334.317-.3.377s.184.124.432,0a.6.6,0,0,1,.235-.063,1.231,1.231,0,0,0,.37-.1,2.02,2.02,0,0,0,.228-.118c.157.22.546,0,.546,0a.287.287,0,0,0,.235-.058c.1-.059.095-.036.251-.068a2.326,2.326,0,0,0,.586-.22.161.161,0,0,1,.04-.021l.063.484-.7-.1c.581.864,1.1,1.022,1.783.7.634-.3.9-.181.9-.181a5.578,5.578,0,0,1-.621.534c-.157.1-.212.189-.165.448a1.953,1.953,0,0,0,.479,1.069,1.375,1.375,0,0,0,.91.219c-.031.271-.058.659-.072,1.126l-.528-.4a15.346,15.346,0,0,0,.042,2.133l-.3-.2c-.006.164-.135,4.734,2.7,7.9a2.841,2.841,0,0,1-.99.629s-3.112-2.56-2.953-9.365l.361.243a12.569,12.569,0,0,1,.065-2.149l-1.628-1.235-.15-.486-1.664-.714,1.146,1.4.621.008a13.13,13.13,0,0,0-.212,2l-.384-.251-.165-.464-1.719-.652,1.217,1.358.605-.038s-.619,6.024,1.426,9.266c1.7,2.7,4.182,2.719,6.438,1.2a14.729,14.729,0,0,1-1.115,2.476,6.154,6.154,0,0,1,.911.08s-.093.392-.143.511-.04.32.192.331.535.036.535.036-.041.283-.048.433c-.007.2-.027.288.782.322.847-.034.792-.119.784-.322-.006-.15-.045-.433-.045-.433s.3-.029.535-.036.24-.21.191-.331-.145-.511-.145-.511a6.172,6.172,0,0,1,.912-.08,15.133,15.133,0,0,1-1.117-2.476c2.258,1.515,4.738,1.5,6.442-1.2,2.045-3.242,1.425-9.266,1.425-9.266l.605.038Zm-9.844-2.332c.067-.3.122-.559.185-.515a.175.175,0,0,0,.212,0c.04-.053.052-.059.083-.005s.219.146.346-.07.09-.106.125-.023.134.117.244.031a1.9,1.9,0,0,1,.275-.2c.077-.038.081-.019.125-.1s.114-.115.118-.165-.047-.11.028-.149.11-.067.177-.036.085-.031.121.012a.075.075,0,0,0,.126,0c.043-.047.075-.121.126-.035s.164.106.188.062.044-.047.075.02a.258.258,0,0,0,.267.1s.114.157.252.133.192-.094.2-.187-.047-.412.047-.343.091.04.118-.016.071,0,.119-.008.039-.071.117.008.086.118.161.138a.328.328,0,0,1,.185.122c.079.082.165.173.306.121,0,0,.09.118.185.11,0,0,.192.209.3.178a.938.938,0,0,0,.251.071c.063-.008.075-.05.115-.028s.023-.075.082-.008.165.185.232.166a.71.71,0,0,0,.279.147c.123.017.158.053.2.053s.02-.039.091.016a.269.269,0,0,0,.24.055.231.231,0,0,1,.154-.016.384.384,0,0,0,.073,0,.783.783,0,0,1-.934.274c-.635-.2-.826-.1-.957.031a2.634,2.634,0,0,0-.5.762c-.077.243-.038.432.432.982a4.247,4.247,0,0,1-1.421-.221,3.093,3.093,0,0,0-2.309-.015c-.131.059-.252.113-.365.169-.084-.085-.293-.3-.37-.4a2.371,2.371,0,0,0,.047-.4.525.525,0,0,0-.071-.325A.524.524,0,0,1,106.709,110.028Zm3.236,2.66a3.425,3.425,0,0,1-1.861.49,3.806,3.806,0,0,1-1.624-.341,3.29,3.29,0,0,1,1.554-.469,4.122,4.122,0,0,1,1.729.252Zm-3.721-1.283.015.005a.718.718,0,0,0,.325.039,4.724,4.724,0,0,1,.356.321,3.528,3.528,0,0,0-.626.42,2.422,2.422,0,0,1-.1-.62C106.207,111.512,106.217,111.455,106.223,111.4Zm-1.119-4.295a.8.8,0,0,1,.319.305c.016.044.03.086.041.126a.74.74,0,0,0-.295-.021,1.375,1.375,0,0,0-.4-.43A.508.508,0,0,1,105.1,107.109Zm-.756-.059a.107.107,0,0,0,.006-.014,1.2,1.2,0,0,0,.714.516.323.323,0,0,0-.089.064.939.939,0,0,1-.428-.118c-.059-.067-.086-.126-.134-.118s0-.071-.043-.1S104.248,107.251,104.348,107.051Zm-.155,2.518a1.2,1.2,0,0,0,.1.339c-.015.026-.029.053-.042.081a1.051,1.051,0,0,0-.15-.428A.212.212,0,0,0,104.193,109.569Zm-3.96,2.14c.471-.551.51-.739.431-.982a2.6,2.6,0,0,0-.5-.762c-.133-.134-.321-.228-.958-.031a.782.782,0,0,1-.934-.273.339.339,0,0,0,.069,0,.234.234,0,0,1,.155.016.268.268,0,0,0,.239-.055c.071-.055.051-.016.09-.016s.075-.036.2-.053a.706.706,0,0,0,.279-.147c.068.019.172-.1.232-.166s.042.032.082.008.051.021.114.028a.952.952,0,0,0,.252-.071c.109.032.3-.178.3-.178.094.008.184-.11.184-.11.141.051.228-.039.307-.121a.322.322,0,0,1,.184-.122c.075-.02.082-.059.16-.138s.07-.018.118-.008.091-.045.118.008.024.087.118.016.043.248.047.343.06.164.2.187.252-.133.252-.133a.258.258,0,0,0,.267-.1c.032-.067.052-.063.075-.02s.138.024.19-.062.081-.013.125.035a.075.075,0,0,0,.125,0c.035-.043.056.02.122-.012s.1,0,.176.036.024.1.028.149.076.086.118.165.049.059.126.1a1.925,1.925,0,0,1,.275.2.149.149,0,0,0,.233-.039c.016.07.04.184.073.184h0c.034,0,.063-.089.087-.144.035.048.074.036.112.051a1.118,1.118,0,0,0,.042,1.082h0c.016,0,.029-.02.041-.053a1.46,1.46,0,0,1,.016.393,1.827,1.827,0,0,0-.259.532,3.109,3.109,0,0,0-2.28.034A4.365,4.365,0,0,1,100.233,111.709Zm3.443.671a2.916,2.916,0,0,1-.384.8,3.375,3.375,0,0,1-1.738-.487l.2-.068a4.123,4.123,0,0,1,1.728-.252C103.55,112.369,103.613,112.375,103.676,112.38ZM101,112.8c.072-.013.144-.016.227-.036a2.9,2.9,0,0,0,2.114.753,3.64,3.64,0,0,0,2.4-.765,3.627,3.627,0,0,0,2.4.768,2.9,2.9,0,0,0,2.114-.746c.085.02.155.014.228.027a18.481,18.481,0,0,1-.128,3.87h-9.237A18.539,18.539,0,0,1,101,112.8Zm.127,4.147h9.237a9.967,9.967,0,0,1-.895,3.249h-7.447A9.944,9.944,0,0,1,101.128,116.944Zm4.619,7.564a10.476,10.476,0,0,1-3.583-4.054h7.163A10.448,10.448,0,0,1,105.747,124.508Z" transform="translate(-94.947 -105)" fill="#fff"/>
      <path id="Trazado_2296" data-name="Trazado 2296" d="M186.01,176.086a.738.738,0,0,0,.433-.156.569.569,0,0,0,.206.031.677.677,0,0,0,.584-.4.542.542,0,0,0,.331-.055.62.62,0,0,0,.281-.672c.013-.008.023-.018.035-.027a.548.548,0,0,0-.006-.765.1.1,0,0,0-.02-.021.271.271,0,0,0,.117-.217c0-.157-.189-.283-.363-.283s-.362.126-.362.283h0a1.154,1.154,0,0,0-.171.093.411.411,0,0,0-.124.294.484.484,0,0,0-.082.039.427.427,0,0,0-.106.083.512.512,0,0,0-.15-.018.577.577,0,0,0-.215.046.712.712,0,0,0-.425-.129.948.948,0,0,0,.036,1.876Z" transform="translate(-173.48 -164.634)" fill="#fff"/>
      <path id="Trazado_2297" data-name="Trazado 2297" d="M149.745,174.8a.285.285,0,0,0,.036.027.62.62,0,0,0,.28.672.541.541,0,0,0,.332.055.676.676,0,0,0,.583.4.566.566,0,0,0,.205-.031.736.736,0,0,0,.432.156.948.948,0,0,0,.036-1.876.724.724,0,0,0-.426.129.585.585,0,0,0-.216-.045.564.564,0,0,0-.152.016.508.508,0,0,0-.114-.082.455.455,0,0,0-.094-.039.393.393,0,0,0-.114-.294,1.058,1.058,0,0,0-.185-.093h0a.332.332,0,0,0-.347-.283.315.315,0,0,0-.331.283.263.263,0,0,0,.107.217c-.006.006-.015.013-.023.021A.546.546,0,0,0,149.745,174.8Z" transform="translate(-142.508 -164.634)" fill="#fff"/>
      <path id="Trazado_2298" data-name="Trazado 2298" d="M173.006,201.718l.383-.581-.073-.275.3.041c.021.126.1.27.222.288a1.493,1.493,0,0,0,.323,0l.114-.133a2.5,2.5,0,0,0-.316-.248,5.886,5.886,0,0,0-.284-1.635c-.1-.289-.234-.3-.49-.263a4.505,4.505,0,0,0-.948.452l-.048.4.236.026s-.135.451-.182.613-.006.155.08.217a2.189,2.189,0,0,0,.418.139l-.094.418Z" transform="translate(-162.176 -186.723)" fill="#fff"/>
      <path id="Trazado_2299" data-name="Trazado 2299" d="M171.516,170.256c.138.8.65.868.852.863a2.757,2.757,0,0,1-.052.5l.252.173a4.5,4.5,0,0,0,0-.81c.606-.088.729-.988.729-.988a1.147,1.147,0,0,0-.74.886,1.623,1.623,0,0,0-.159-.569.765.765,0,0,0,.68-.761.757.757,0,0,0-.245-.559l.126-.236-.267.053-.11-.2-.2.158-.118-.158-.125.182-.236-.133.066.214a.765.765,0,0,0,.212,1.44,1.369,1.369,0,0,1,.179.648A1.762,1.762,0,0,0,171.516,170.256Zm.831.046c-.185,0-.335-.33-.335-.738s.15-.735.335-.735.335.33.335.735S172.531,170.3,172.347,170.3Z" transform="translate(-161.588 -160.359)" fill="#fff"/>
      <path id="Trazado_2300" data-name="Trazado 2300" d="M176.549,228.5a.622.622,0,0,1,0-.493h-.921a.614.614,0,0,0,0,.493Z" transform="translate(-165.122 -212.056)" fill="#fff"/>
      <path id="Trazado_2301" data-name="Trazado 2301" d="M175.628,240.7a1.082,1.082,0,0,0,0,.66h.921a1.1,1.1,0,0,1,0-.66Z" transform="translate(-165.122 -223.105)" fill="#fff"/>
      <path id="Trazado_2302" data-name="Trazado 2302" d="M171.714,232.3l.205-.33h-1.409l-.155-.165h-.588l.073.165h.142l.15.33Z" transform="translate(-160.067 -215.362)" fill="#fff"/>
      <path id="Trazado_2303" data-name="Trazado 2303" d="M174.029,245.954h-1.193l-.085-.165h-.31l.094.188.253.139H174l.245-.142.034-.185h-.2Z" transform="translate(-162.393 -227.533)" fill="#fff"/>
    </g>
    <g id="Grupo_7238" data-name="Grupo 7238" transform="translate(9031.268 -369.948)">
      <g id="Grupo_4376" data-name="Grupo 4376">
        <path id="Trazado_2304" data-name="Trazado 2304" d="M374.871,124.736a7.431,7.431,0,0,0-5.028-2c-4.363,0-6.891,3.272-6.864,7.21,0,3.405,2.022,6.7,6.864,6.7a6.653,6.653,0,0,0,4.549-1.65v-3.778H369.2v-2.66h7.955V136.2a9.373,9.373,0,0,1-7.316,3.246c-6.837,0-9.791-4.549-9.791-9.5,0-5.374,3.432-9.95,9.791-9.95a9.793,9.793,0,0,1,6.891,2.82Z" transform="translate(-360.052 -120)" fill="#fff"/>
        <path id="Trazado_2305" data-name="Trazado 2305" d="M529.231,129.777c0,5.049-3.072,9.671-9.564,9.671S510.1,134.72,510.1,129.8c0-5.69,3.98-9.8,9.617-9.8C526.106,120.027,529.231,124.728,529.231,129.777Zm-9.564,6.919c4.648,0,6.6-3.286,6.6-6.866,0-3.446-1.977-7.026-6.545-7.106-4.328,0-6.652,3.019-6.652,7.106C513.123,133.143,515.046,136.7,519.668,136.7Z" transform="translate(-490.648 -120)" fill="#fff"/>
        <path id="Trazado_2306" data-name="Trazado 2306" d="M672.4,139.847h-3.227l-8.026-19.389h3.475l6.15,15.693,6.178-15.693H680.4Z" transform="translate(-622.108 -120.399)" fill="#fff"/>
        <path id="Trazado_2307" data-name="Trazado 2307" d="M799.024,241.921a1.949,1.949,0,1,1-3.9,0A1.949,1.949,0,0,1,799.024,241.921Z" transform="translate(-738.712 -224.429)" fill="#fff"/>
        <path id="Trazado_2308" data-name="Trazado 2308" d="M857.145,136.662a9.828,9.828,0,0,1-7.045,2.786c-6.8,0-9.858-4.688-9.885-9.617S843.4,120,850.1,120a9.586,9.586,0,0,1,6.858,2.84l-2.009,1.929a6.889,6.889,0,0,0-4.849-1.929c-4.768,0-6.938,3.509-6.911,6.965.027,3.429,2.063,6.831,6.911,6.831a7.268,7.268,0,0,0,4.983-2.036Z" transform="translate(-777.955 -120)" fill="#fff"/>
        <path id="Trazado_2309" data-name="Trazado 2309" d="M1009.277,130.206c0,5.033-3.063,9.641-9.535,9.641s-9.534-4.714-9.534-9.615c0-5.673,3.968-9.774,9.588-9.774C1006.161,120.485,1009.277,125.172,1009.277,130.206Zm-9.535,6.9c4.634,0,6.578-3.276,6.578-6.845,0-3.436-1.971-7-6.525-7.084-4.314,0-6.632,3.009-6.632,7.084C993.218,133.561,995.135,137.1,999.742,137.1Z" transform="translate(-908.499 -120.399)" fill="#fff"/>
      </g>
    </g>
    <g id="Grupo_7236" data-name="Grupo 7236" transform="translate(9023.487 -373.838)">
      <rect id="Rectángulo_1847" data-name="Rectángulo 1847" width="2.093" height="11.669" transform="translate(0)" fill="#fbd015"/>
      <rect id="Rectángulo_1848" data-name="Rectángulo 1848" width="2.093" height="7.779" transform="translate(0 11.669)" fill="#05569e"/>
      <rect id="Rectángulo_1849" data-name="Rectángulo 1849" width="2.093" height="7.78" transform="translate(0 19.448)" fill="#d11f3e"/>
    </g>
  </g>
</svg>
